Modeling Encelia Species Project – Natalie Torres
…
Show code

mapped_predictions <- map(
  encelia_cv$splits,
  encelia_prediction
)
mapped_predictions_df <- mapped_predictions|>
  bind_rows(
    .id = "fold"
  )
mapped_predictions_df|>
  select(Species, fold, pred_all, pred_stemray, pred_null)

# A tibble: 79 × 5
   Species     fold   pred_all pred_stemray pred_null
   <fct>       <chr>     <dbl>        <dbl>     <dbl>
 1 Californica 1      2.22e-16      0.0317      0.458
 2 Californica 1      2.22e-16      0.0720      0.458
 3 Californica 1      2.22e-16      0.0185      0.458
 4 Californica 1      2.22e-16      0.00106     0.458
 5 Californica 1     NA            NA           0.458
 6 Californica 1      2.22e-16      0.0354      0.458
 7 Farinosa    1      1   e+ 0      0.986       0.458
 8 Farinosa    1      2.22e-16      0.286       0.458
 9 Farinosa    1      2.22e-16      0.920       0.458
10 Farinosa    1      1   e+ 0      0.955       0.458
# ℹ 69 more rows
…
pred_all <- mapped_predictions_df |>
  pivot_longer(
    cols = starts_with("pred"),
    names_to = "model",
    values_to = ".pred_Farinosa"
  ) |>
  mutate(
    .pred_Californica = 1 - .pred_Farinosa
  )

pred_all |>
  select(Species, model, fold, .pred_Californica, .pred_Farinosa)

# A tibble: 237 × 5
   Species     model        fold  .pred_Californica .pred_Farinosa
   <fct>       <chr>        <chr>             <dbl>          <dbl>
 1 Californica pred_all     1                 1           2.22e-16
 2 Californica pred_stemray 1                 0.968       3.17e- 2
 3 Californica pred_null    1                 0.542       4.58e- 1
 4 Californica pred_all     1                 1           2.22e-16
 5 Californica pred_stemray 1                 0.928       7.20e- 2
 6 Californica pred_null    1                 0.542       4.58e- 1
 7 Californica pred_all     1                 1           2.22e-16
 8 Californica pred_stemray 1                 0.981       1.85e- 2
 9 Californica pred_null    1                 0.542       4.58e- 1
10 Californica pred_all     1                 1           2.22e-16
# ℹ 227 more rows
…
Show code

encelia_class_predictions <- encelia_glm_final |>
  augment(newdata = encelia_test, type.predict = "response") |>
  mutate(
    .pred_Farinosa = .fitted,
    .pred_Californica = 1 - .fitted,
    .pred_class = if_else(.fitted >= 0.5, "Farinosa", "Californica") |> 
      as.factor()
  )
encelia_class_predictions |>
  select(Species, .fitted, .pred_Farinosa, .pred_Californica, .pred_class)

# A tibble: 21 × 5
   Species     .fitted .pred_Farinosa .pred_Californica .pred_class
   <fct>         <dbl>          <dbl>             <dbl> <fct>      
 1 Farinosa    0.740          0.740             0.260   Farinosa   
 2 Californica 0.0438         0.0438            0.956   Californica
 3 Californica 0.994          0.994             0.00615 Farinosa   
 4 Farinosa    0.532          0.532             0.468   Farinosa   
 5 Californica 0.00694        0.00694           0.993   Californica
 6 Californica 0.0410         0.0410            0.959   Californica
 7 Farinosa    0.506          0.506             0.494   Farinosa   
 8 Farinosa    0.496          0.496             0.504   Californica
 9 Farinosa    0.102          0.102             0.898   Californica
10 Californica 0.0398         0.0398            0.960   Californica
# ℹ 11 more rows
…
