NatsPortfolio
…
Deciding what listings are better for their price

now i have to deciede whether or not a listing it worth its value. we can begin by looking at SqFt per Price to determine if you getting the most space out of your value.

Rent_Clean_Affordable|>
  mutate( 
  sqft_per_dollar = SqFt / Price
  )|>
arrange(desc(sqft_per_dollar))

# A tibble: 124 × 11
   Price  Beds Baths  SqFt Address   Type  County City  rent_per_room affordable
   <dbl> <dbl> <dbl> <dbl> <chr>     <chr> <chr>  <chr>         <dbl> <lgl>     
 1   750     4   4    3000 217 E 29… condo LA     " Lo…          188. TRUE      
 2   899     1   1    1524 4283 5th… house RIV    " Ri…          899  TRUE      
 3   900     1   1    1068 200 E Al… condo RIV    " Ri…          900  TRUE      
 4  4200     5   4.5  3685 19737 Co… house RIV    " Ri…          840  TRUE      
 5  1109     2   2     904 | 3549 I… apar… RIV    " Ri…          554. TRUE      
 6  3900     4   3    3111 8515 McA… house RIV    " Ri…          975  TRUE      
 7  3790     4   3    2950 17346 Co… house RIV    " Ri…          948. TRUE      
 8  4100     5   3    2700 4541 Bra… house RIV    " Ri…          820  TRUE      
 9  4650     5   3    2909 16392 Fa… house RIV    " Ri…          930  TRUE      
10  3395     4   3.5  2100 4054 Bou… condo RIV    " Ju…          849. TRUE      
# ℹ 114 more rows
# ℹ 1 more variable: sqft_per_dollar <dbl>
…
